C:\eya\calcule-taxe\src\main\java\com\pacifica\calcule_taxe\models\LigneCommande.java
C:\eya\calcule-taxe\src\main\java\com\pacifica\calcule_taxe\common\utils\TaxeCalculUtil.java
C:\eya\calcule-taxe\src\main\java\com\pacifica\calcule_taxe\models\Commande.java
C:\eya\calcule-taxe\src\main\java\com\pacifica\calcule_taxe\models\Facture.java
C:\eya\calcule-taxe\src\main\java\com\pacifica\calcule_taxe\services\CalculTaxeService.java
C:\eya\calcule-taxe\src\main\java\com\pacifica\calcule_taxe\common\constant\Constant.java
C:\eya\calcule-taxe\src\main\java\com\pacifica\calcule_taxe\models\LigneFacture.java
C:\eya\calcule-taxe\src\main\java\com\pacifica\calcule_taxe\models\Produit.java
C:\eya\calcule-taxe\src\main\java\com\pacifica\calcule_taxe\services\ReadFileCommandeService.java
C:\eya\calcule-taxe\src\main\java\com\pacifica\calcule_taxe\App.java
C:\eya\calcule-taxe\src\main\java\com\pacifica\calcule_taxe\serviceImpl\ReadFileCommandeServiceImpl.java
C:\eya\calcule-taxe\src\main\java\com\pacifica\calcule_taxe\common\utils\ProductUtil.java
C:\eya\calcule-taxe\src\main\java\com\pacifica\calcule_taxe\serviceImpl\CalculTaxeServiceImpl.java
